…
Typically when I want to understand something, I make an R package, I guess I really want to understand this, as I am making not 1, not 2 but 3 packages (if I count emojitsu).

uni : contains a tibble of unicode runes

utf8splain : to get to the 0 and 1 of utf-8 string encoding

emojitsu : grammar of emoji, or at least programmatic manipulation of them.

The world has changed now, and strings can no longer be considered as mere sequences of single characters (bytes). The uni::code tibble contains the 82719 unicode runes (aka code points). btw, the generation of the uni::code tibble contains some interesting tidyverse gymnatics, perhaps I’ll write another post about that, but let’s not digress more yet.

uni::code

## # A tibble: 82,719 x 7
##       id   rune                                              description
##    <int>  <chr>                                                    <chr>
##  1     0 U+0000                                               Null : NUL
##  2     1 U+0001                                   Start of Heading : SOH
##  3     2 U+0002                                      Start of Text : STX
##  4     3 U+0003                                        End of Text : ETX
##  5     4 U+0004                                End of Transmission : EOT
##  6     5 U+0005                                            Enquiry : ENQ
##  7     6 U+0006                                        Acknowledge : ASK
##  8     7 U+0007                                               Bell : BEL
##  9     8 U+0008                                           Backspace : BS
## 10     9 U+0009  Horizontal Tabulation : ht : character tabulation : TAB
## # ... with 82,709 more rows, and 4 more variables: block <chr>,
## #   countries <chr>, languages <chr>, type <chr>
…
