…
jetlag <- function(data, variable, n=10){
  variable <- enquo(variable)
  
  indices <- seq_len(n)
  quosures <- map( indices, ~quo(lag(!!variable, !!.x)) ) %>% 
    set_names(sprintf("lag_%02d", indices))
  
  mutate( data, !!!quosures )
  
}
jetlag(d, x, 3)

## # A tibble: 100 x 4
##        x lag_01 lag_02 lag_03
##    <int>  <int>  <int>  <int>
##  1     1     NA     NA     NA
##  2     2      1     NA     NA
##  3     3      2      1     NA
##  4     4      3      2      1
##  5     5      4      3      2
##  6     6      5      4      3
##  7     7      6      5      4
##  8     8      7      6      5
##  9     9      8      7      6
## 10    10      9      8      7
## # ... with 90 more rows
…
names(quosures)

## [1] "lag_01" "lag_02" "lag_03"

Finally, the !!! injects the expressions in mutate. In essencen, what jetlag is doing is
programmatically build something similar to this repetitive expression:

mutate( d, 
  lag_01 = lag(x, 1), 
  lag_02 = lag(x, 2), 
  lag_03 = lag(x, 3)
)

## # A tibble: 100 x 4
##        x lag_01 lag_02 lag_03
##    <int>  <int>  <int>  <int>
##  1     1     NA     NA     NA
##  2     2      1     NA     NA
##  3     3      2      1     NA
##  4     4      3      2      1
##  5     5      4      3      2
##  6     6      5      4      3
##  7     7      6      5      4
##  8     8      7      6      5
##  9     9      8      7      6
## 10    10      9      8      7
## # ... with 90 more rows

but with hopefully with nicer (or at least shorter) syntax:

jetlag(d, x, 3)

## # A tibble: 100 x 4
##        x lag_01 lag_02 lag_03
##    <int>  <int>  <int>  <int>
##  1     1     NA     NA     NA
##  2     2      1     NA     NA
##  3     3      2      1     NA
##  4     4      3      2      1
##  5     5      4      3      2
##  6     6      5      4      3
##  7     7      6      5      4
##  8     8      7      6      5
##  9     9      8      7      6
## 10    10      9      8      7
## # ... with 90 more rows
…
lags creates the quosures and then we can unquote splice them “manually”.

mutate( d, !!!lags(x, 3) )

## # A tibble: 100 x 4
##        x lag_x_01 lag_x_02 lag_x_03
##    <int>    <int>    <int>    <int>
##  1     1       NA       NA       NA
##  2     2        1       NA       NA
##  3     3        2        1       NA
##  4     4        3        2        1
##  5     5        4        3        2
##  6     6        5        4        3
##  7     7        6        5        4
##  8     8        7        6        5
##  9     9        8        7        6
## 10    10        9        8        7
## # ... with 90 more rows
…
