…
use_data( words_internal, internal = TRUE, overwrite = TRUE)

This tibble has one line per word size, and for each of these sizes, the list column data is a list column of tibbles.

anagram:::words_internal

## # A tibble: 29 x 2
##     size data             
##    <int> <list>           
##  1     1 <tibble [26 × 2]>
##  2     2 <tibble [26 × 2]>
##  3     3 <tibble [26 × 2]>
##  4     4 <tibble [26 × 2]>
##  5     5 <tibble [26 × 2]>
##  6     6 <tibble [26 × 2]>
##  7     7 <tibble [26 × 2]>
##  8     8 <tibble [26 × 2]>
##  9     9 <tibble [26 × 2]>
## 10    10 <tibble [26 × 2]>
## # ... with 19 more rows

pluck( anagram:::words_internal, "data", 5 )

## # A tibble: 26 x 2
##    first words        
##    <chr> <list>       
##  1 a     <chr [1,173]>
##  2 b     <chr [1,141]>
##  3 c     <chr [1,196]>
##  4 d     <chr [801]>  
##  5 e     <chr [421]>  
##  6 f     <chr [684]>  
##  7 g     <chr [737]>  
##  8 h     <chr [571]>  
##  9 i     <chr [301]>  
## 10 j     <chr [260]>  
## # ... with 16 more rows
…
